{
  "package": "cn.gtcommunity.epimorphism.mixin",
  "required": true,
  "refmap": "${mixin_refmap}",
  "target": "@env(DEFAULT)",
  "minVersion": "0.8.5",
  "compatibilityLevel": "JAVA_8",
  "mixins": [],
  "server": [],
  "client": ["minecraft.MixinBlockGlass"]
}